<?xml version="1.0" encoding="UTF-8" standalone="no"?>
<!-- Created with Inkscape (http://www.inkscape.org/) -->

<svg
   xmlns:dc="http://purl.org/dc/elements/1.1/"
   xmlns:cc="http://creativecommons.org/ns#"
   xmlns:rdf="http://www.w3.org/1999/02/22-rdf-syntax-ns#"
   xmlns:svg="http://www.w3.org/2000/svg"
   xmlns="http://www.w3.org/2000/svg"
   xmlns:xlink="http://www.w3.org/1999/xlink"
   xmlns:sodipodi="http://sodipodi.sourceforge.net/DTD/sodipodi-0.dtd"
   xmlns:inkscape="http://www.inkscape.org/namespaces/inkscape"
   width="100"
   height="100"
   id="svg2"
   version="1.1"
   inkscape:version="0.48.4 r9939"
   sodipodi:docname="favicon.svg"
   inkscape:export-filename="/home/erwan/apps/mysearch/static/search_icon2.png"
   inkscape:export-xdpi="27"
   inkscape:export-ydpi="27">
  <defs
     id="defs4">
    <linearGradient
       id="linearGradient3888">
      <stop
         style="stop-color:#37a7db;stop-opacity:1;"
         offset="0"
         id="stop3890" />
      <stop
         style="stop-color:#3f579d;stop-opacity:1"
         offset="1"
         id="stop3892" />
    </linearGradient>
    <linearGradient
       id="linearGradient3110">
      <stop
         style="stop-color:#ff0000;stop-opacity:1;"
         offset="0"
         id="stop3112" />
      <stop
         id="stop3118"
         offset="0.5"
         style="stop-color:#9d2c4d;stop-opacity:1;" />
      <stop
         style="stop-color:#3c599b;stop-opacity:1"
         offset="1"
         id="stop3114" />
    </linearGradient>
    <linearGradient
       inkscape:collect="always"
       xlink:href="#linearGradient3888"
       id="linearGradient3894"
       x1="909.64288"
       y1="331.29074"
       x2="909.64288"
       y2="234.13739"
       gradientUnits="userSpaceOnUse"
       gradientTransform="matrix(0.8092486,0,0,0.89171972,166.60814,25.979168)" />
  </defs>
  <sodipodi:namedview
     id="base"
     pagecolor="#ffffff"
     bordercolor="#666666"
     borderopacity="1.0"
     inkscape:pageopacity="0.0"
     inkscape:pageshadow="2"
     inkscape:zoom="2.8"
     inkscape:cx="-105.64976"
     inkscape:cy="4.744653"
     inkscape:document-units="px"
     inkscape:current-layer="layer1"
     showgrid="false"
     inkscape:window-width="1920"
     inkscape:window-height="1019"
     inkscape:window-x="0"
     inkscape:window-y="27"
     inkscape:window-maximized="1"
     fit-margin-top="0"
     fit-margin-left="0"
     fit-margin-right="0"
     fit-margin-bottom="0" />
  <metadata
     id="metadata7">
    <rdf:RDF>
      <cc:Work
         rdf:about="">
        <dc:format>image/svg+xml</dc:format>
        <dc:type
           rdf:resource="http://purl.org/dc/dcmitype/StillImage" />
        <dc:title />
      </cc:Work>
    </rdf:RDF>
  </metadata>
  <g
     inkscape:groupmode="layer"
     id="layer1"
     inkscape:label="Calque"
     style="display:inline">
    <rect
       transform="translate(-844.64288,-225.21933)"
       style="opacity:0.98188405;color:#000000;fill:url(#linearGradient3894);fill-opacity:1;fill-rule:nonzero;stroke:none;stroke-width:1;marker:none;visibility:visible;display:inline;overflow:visible;enable-background:accumulate"
       id="rect3108"
       width="100"
       height="100"
       x="844.64288"
       y="225.21933"
       inkscape:export-filename="/home/erwan/apps/mysearch/static/favicon.png"
       inkscape:export-xdpi="14.4"
       inkscape:export-ydpi="14.4" />
  </g>
  <g
     inkscape:groupmode="layer"
     id="layer3"
     inkscape:label="plus"
     style="display:none">
    <path
       style="fill:none;stroke:#ffffff;stroke-width:15;stroke-linecap:square;stroke-linejoin:miter;stroke-miterlimit:4;stroke-opacity:1;stroke-dasharray:none"
       d="m 50.714285,21.071428 0,58.571429"
       id="path3764"
       inkscape:connector-curvature="0" />
    <use
       x="0"
       y="0"
       xlink:href="#path3764"
       id="use3777"
       transform="matrix(0,1,-1,0,101.07143,-0.35714293)"
       width="100"
       height="100"
       style="stroke-width:15;stroke-miterlimit:4;stroke-dasharray:none" />
  </g>
  <g
     inkscape:groupmode="layer"
     id="layer2"
     inkscape:label="vec"
     transform="translate(-844.64288,-225.21933)"
     style="display:inline">
    <path
       style="opacity:0.98188405;color:#000000;fill:#ffffff;fill-opacity:1;fill-rule:nonzero;stroke:none;stroke-width:0.99439734;marker:none;visibility:visible;display:inline;overflow:visible;enable-background:accumulate"
       d="m 883.5,236.4375 c -15.74012,0 -28.5,12.75988 -28.5,28.5 0,15.74012 12.75988,28.5 28.5,28.5 15.74012,0 28.5,-12.75988 28.5,-28.5 0,-15.74012 -12.75988,-28.5 -28.5,-28.5 z m 0,7.5 c 11.59798,0 21,9.40202 21,21 0,11.59798 -9.40202,21 -21,21 -11.59798,0 -21,-9.40202 -21,-21 0,-11.59798 9.40202,-21 21,-21 z"
       id="path3098"
       inkscape:connector-curvature="0" />
    <path
       style="fill:#ffffff;stroke:none"
       d="m 903.07638,290.32836 25.75889,27.65292 c 0,0 4.92449,0.75762 7.57614,-3.15673 2.65165,-3.91434 1.89404,-7.57614 1.89404,-7.57614 l -29.29442,-23.73858 c 0,0 -1.2627,2.52537 -2.65166,4.0406 -1.38896,1.51523 -3.28299,2.77793 -3.28299,2.77793 z"
       id="path3106"
       inkscape:connector-curvature="0"
       sodipodi:nodetypes="ccsccsc" />
  </g>
</svg>
